8 20 21
107 1350 182
208 1420 182
1800 250 182
5 216 125
95 440 144
2000 225 182
43 114 119
42 198 125
9 559950 470
57 101 119
6 1 9
67 146 122
1593 797 182
65 232 128
76 213 125
25 314 131
24 316 131
102 452 144
101 200 125
999999 999999 259
32 202 125
43 125 119
587 482950 449
69007 4010 340
246912 246913 182
987661 864142 507
84 361 144
50 357 144
500 750 171
3007 1700 217
888888 888888 119
4507 703058 509
100451 31450 351
100001 100001 90
63 419 144
630007 25612 509
76 95 111
760 9 171
11 27950 308
38 113 119
80 335 144
21 259 128
44451 622166 470
88895 311058 443
12928 161616 383
646471 45198 509
2000 25000 282
200000 250 383
8 300 128
31 49 110
52 52 12
10593 5297 262
29 167 122
17 97 119
88 379 144
999015 6 525
642 246 144
1974 80 182
12000 15000 276
120002 1500 354
91 421 144
42 444 144
12 11 15
92 1 116
132 165 117
667 412 145
136 174242 383
696976 426 509
92 328 144
49 360 144
144000 180000 383
720007 503950 509
148888 18888 375
75562 521058 470
27 336 144
4 487 144
2556 1128 209
4519 8896 262
15 13 18
18 2 21
895 62124 340
8889 6166 262
64 300 128
15 252 128
172 216 120
1732 21 182
8895 622166 470
177776 2222 383
16 580 144
180 2 125
18 230 125
927 13 179
94007 657957 509
188002 23500 383
247998 249780 350
999130 867943 507
98 422 144
90 203 125
193 97 125
10101 10101 43
20444 3055 279
24444 2555 282
65 244 128
904007 727950 525
